{
    "version": "17", 
    "personal": {
        "submitter_name": "Susan Jensen", 
        "submitter_institution": "University of Alberta", 
        "submitter_email": "susan.jensen@ualberta.ca"
    }, 
    "general_params": {
        "mibig_accession": "BGC0001153", 
        "biosyn_class": [
            "NRP"
        ], 
        "publications": "22195566", 
        "loci": {
            "complete": "unknown", 
            "nucl_acc": [
                {
                    "Accession": "JN660148", 
                    "start_coord": 1, 
                    "end_coord": 40826, 
                    "conn_comp_cluster": [
                        "Knock-out studies"
                    ]
                }
            ]
        }, 
        "compounds": [
            {
                "compound": "polymyxin B", 
                "chem_synonyms": [
                    "d-dab polymyxin b"
                ], 
                "database_deposited": true, 
                "databases_deposited": [
                    "PubChem"
                ], 
                "pubchem_id": 9833652, 
                "chem_act": [
                    "Antibacterial"
                ], 
                "chem_target": "bacterial cell envelope"
            }
        ], 
        "genes": {
            "gene": [
                {
                    "gene_name": "pmxA", 
                    "not_in_gbk": false, 
                    "gene_startpos": 9, 
                    "gene_endpos": 14765, 
                    "gene_id": "AEZ51516.1", 
                    "gene_annotation": "PmxA", 
                    "gene_function": "Scaffold biosynthesis", 
                    "evidence_genefunction": [
                        "Sequence-based prediction"
                    ]
                }, 
                {
                    "gene_name": "pmxB", 
                    "not_in_gbk": false, 
                    "gene_startpos": 14920, 
                    "gene_endpos": 18228, 
                    "gene_id": "AEZ51517.1", 
                    "gene_annotation": "PmxB", 
                    "gene_function": "Scaffold biosynthesis", 
                    "evidence_genefunction": [
                        "Sequence-based prediction"
                    ]
                }, 
                {
                    "gene_name": "pmxC", 
                    "not_in_gbk": false, 
                    "gene_startpos": 18218, 
                    "gene_endpos": 20044, 
                    "gene_id": "AEZ51518.1", 
                    "gene_annotation": "PmxC", 
                    "gene_function": "Transport", 
                    "evidence_genefunction": [
                        "Knock-out"
                    ], 
                    "mut_pheno": "reduced production"
                }, 
                {
                    "gene_name": "pmxD", 
                    "not_in_gbk": false, 
                    "gene_startpos": 20041, 
                    "gene_endpos": 21774, 
                    "gene_id": "AEZ51519.1", 
                    "gene_annotation": "PmxD", 
                    "gene_function": "Transport", 
                    "evidence_genefunction": [
                        "Knock-out"
                    ], 
                    "mut_pheno": "reduced production"
                }, 
                {
                    "gene_name": "pmxE", 
                    "not_in_gbk": false, 
                    "gene_startpos": 22005, 
                    "gene_endpos": 40826, 
                    "gene_id": "AEZ51520.1", 
                    "gene_annotation": "PmxE", 
                    "gene_function": "Scaffold biosynthesis", 
                    "evidence_genefunction": [
                        "Knock-out"
                    ], 
                    "mut_pheno": "non-producer"
                }
            ]
        }, 
        "NRP": {
            "subclass": "Other lipopeptide", 
            "lipid_moiety": "isooctanoic acid", 
            "lin_cycl_nrp": "Cyclic", 
            "nrps_te_type": "Type I", 
            "nrps_thioesterase": [
                "aez51517.1"
            ], 
            "nrps_release_type": "Macrolactamization", 
            "nrps_genes": [
                {
                    "nrps_gene": "AEZ51520.1", 
                    "nrps_module": [
                        {
                            "module_nr": "0", 
                            "a_substr_spec": {
                                "aa_type": "Nonproteinogenic", 
                                "nonprot_adom_spec": "L-2,4-Diaminobutyric acid", 
                                "evidence_a_spec": "Sequence-based prediction", 
                                "epimerized": false
                            }, 
                            "cdom_subtype": "Starter", 
                            "nrps_mod_doms": "None", 
                            "nrps_mod_skip_iter": "Neither"
                        }, 
                        {
                            "module_nr": "1", 
                            "a_substr_spec": {
                                "aa_type": "Proteinogenic", 
                                "prot_adom_spec": "Threonine", 
                                "evidence_a_spec": "Sequence-based prediction", 
                                "epimerized": false
                            }, 
                            "cdom_subtype": "LCL", 
                            "nrps_mod_doms": "None", 
                            "nrps_mod_skip_iter": "Neither"
                        }, 
                        {
                            "module_nr": "2", 
                            "a_substr_spec": {
                                "aa_type": "Nonproteinogenic", 
                                "nonprot_adom_spec": "L-2,4-Diaminobutyric acid", 
                                "evidence_a_spec": "Sequence-based prediction", 
                                "epimerized": true
                            }, 
                            "cdom_subtype": "LCL", 
                            "nrps_mod_doms": "None", 
                            "nrps_mod_skip_iter": "Neither"
                        }, 
                        {
                            "module_nr": "3", 
                            "a_substr_spec": {
                                "aa_type": "Nonproteinogenic", 
                                "nonprot_adom_spec": "L-2,4-Diaminobutyric acid", 
                                "evidence_a_spec": "Sequence-based prediction", 
                                "epimerized": false
                            }, 
                            "cdom_subtype": "DCL", 
                            "nrps_mod_doms": "None", 
                            "nrps_mod_skip_iter": "Neither"
                        }, 
                        {
                            "module_nr": "4", 
                            "a_substr_spec": {
                                "aa_type": "Nonproteinogenic", 
                                "nonprot_adom_spec": "L-2,4-Diaminobutyric acid", 
                                "evidence_a_spec": "Sequence-based prediction", 
                                "epimerized": false
                            }, 
                            "cdom_subtype": "LCL", 
                            "nrps_mod_doms": "None", 
                            "nrps_mod_skip_iter": "Neither"
                        }, 
                        {
                            "module_nr": "5", 
                            "a_substr_spec": {
                                "epimerized": false
                            }, 
                            "cdom_subtype": "LCL", 
                            "nrps_mod_doms": "None", 
                            "nrps_mod_skip_iter": "Neither"
                        }
                    ]
                }, 
                {
                    "nrps_gene": "AEZ51516.1", 
                    "nrps_module": [
                        {
                            "module_nr": "10", 
                            "a_substr_spec": {
                                "epimerized": false
                            }, 
                            "cdom_subtype": "LCL", 
                            "nrps_mod_doms": "None", 
                            "nrps_mod_skip_iter": "Neither"
                        }, 
                        {
                            "module_nr": "6", 
                            "a_substr_spec": {
                                "aa_type": "Proteinogenic", 
                                "prot_adom_spec": "Phenylalanine", 
                                "evidence_a_spec": "Sequence-based prediction", 
                                "epimerized": true
                            }, 
                            "cdom_subtype": "N/A", 
                            "nrps_mod_doms": "None", 
                            "nrps_mod_skip_iter": "Neither"
                        }, 
                        {
                            "module_nr": "7", 
                            "a_substr_spec": {
                                "aa_type": "Proteinogenic", 
                                "prot_adom_spec": "Leucine", 
                                "evidence_a_spec": "Sequence-based prediction", 
                                "epimerized": false
                            }, 
                            "cdom_subtype": "DCL", 
                            "nrps_mod_doms": "None", 
                            "nrps_mod_skip_iter": "Neither"
                        }, 
                        {
                            "module_nr": "8", 
                            "a_substr_spec": {
                                "aa_type": "Nonproteinogenic", 
                                "nonprot_adom_spec": "L-2,4-Diaminobutyric acid", 
                                "evidence_a_spec": "Sequence-based prediction", 
                                "epimerized": false
                            }, 
                            "cdom_subtype": "LCL", 
                            "nrps_mod_doms": "None", 
                            "nrps_mod_skip_iter": "Neither"
                        }, 
                        {
                            "module_nr": "9", 
                            "a_substr_spec": {
                                "aa_type": "Nonproteinogenic", 
                                "nonprot_adom_spec": "L-2,4-Diaminobutyric acid", 
                                "evidence_a_spec": "Sequence-based prediction", 
                                "epimerized": false
                            }, 
                            "cdom_subtype": "LCL", 
                            "nrps_mod_doms": "None", 
                            "nrps_mod_skip_iter": "Neither"
                        }
                    ]
                }, 
                {
                    "nrps_gene": "AEZ51517.1", 
                    "nrps_module": [
                        {
                            "module_nr": "11", 
                            "a_substr_spec": {
                                "aa_type": "Proteinogenic", 
                                "prot_adom_spec": "Threonine", 
                                "evidence_a_spec": "Sequence-based prediction", 
                                "epimerized": false
                            }, 
                            "cdom_subtype": "N/A", 
                            "nrps_mod_doms": "None", 
                            "nrps_mod_skip_iter": "Neither"
                        }
                    ]
                }
            ]
        }
    }
}


