{
    "version": "15", 
    "personal": {
        "submitter_name": "Helge B. Bode", 
        "submitter_institution": "Molecular Biotechnology, Institute for Molecular Bioscience, Goethe University Frankfurt, 60438 Frankfurt/Main, Germany", 
        "submitter_email": "h.bode@bio.uni-frankfurt.de"
    }, 
    "general_params": {
        "mibig_accession": "BGC0001131", 
        "biosyn_class": [
            "NRP"
        ], 
        "publications": "24816640", 
        "loci": {
            "complete": "unknown", 
            "nucl_acc": [
                {
                    "Accession": "-", 
                    "start_coord": -1, 
                    "end_coord": -1, 
                    "conn_comp_cluster": [
                        "Heterologous expression"
                    ]
                }
            ]
        }, 
        "compounds": [
            {
                "compound": "Ambactin", 
                "chem_synonyms": [], 
                "chem_struct": "CC(C)C[C@@H]2NC(=O)[C@H](NC(=O)[C@@H](NC(=O)[C@@H](CO)NC(=O)[C@H](CCCCN)NC(=O)[C@@H](Cc1ccccc1)NC2=O)CCC(N)=O)Cc3ccccc3", 
                "molecular_formula": "C38H55N8O8", 
                "mol_mass": 751.413737, 
                "mass_ion_type": "[M+H]+", 
                "chem_act": [
                    "Other"
                ], 
                "other_chem_act": "weakly bioactive against Trypanosoma brucei rhodesiense"
            }
        ], 
        "genes": {}, 
        "NRP": {
            "subclass": "Other", 
            "lin_cycl_nrp": "Cyclic", 
            "nrps_genes": [
                {
                    "nrps_gene": "-", 
                    "nrps_module": [
                        {
                            "module_nr": "1", 
                            "a_substr_spec": {
                                "aa_type": "Proteinogenic", 
                                "prot_adom_spec": "Serine", 
                                "evidence_a_spec": "Structure-based inference", 
                                "epimerized": true
                            }, 
                            "cdom_subtype": "None", 
                            "nrps_mod_doms": "None", 
                            "nrps_mod_skip_iter": "Neither"
                        }, 
                        {
                            "module_nr": "2", 
                            "a_substr_spec": {
                                "aa_type": "Proteinogenic", 
                                "prot_adom_spec": "Glutamine", 
                                "evidence_a_spec": "Structure-based inference"
                            }, 
                            "cdom_subtype": "Dual", 
                            "nrps_mod_doms": "None", 
                            "nrps_mod_skip_iter": "Neither"
                        }, 
                        {
                            "module_nr": "3", 
                            "a_substr_spec": {
                                "aa_type": "Proteinogenic", 
                                "prot_adom_spec": "Phenylalanine", 
                                "evidence_a_spec": "Structure-based inference", 
                                "epimerized": true
                            }, 
                            "cdom_subtype": "LCL", 
                            "nrps_mod_doms": "None", 
                            "nrps_mod_skip_iter": "Neither"
                        }, 
                        {
                            "module_nr": "4", 
                            "a_substr_spec": {
                                "aa_type": "Proteinogenic", 
                                "prot_adom_spec": "Leucine", 
                                "evidence_a_spec": "Structure-based inference"
                            }, 
                            "cdom_subtype": "Dual", 
                            "nrps_mod_doms": "None", 
                            "nrps_mod_skip_iter": "Neither"
                        }, 
                        {
                            "module_nr": "5", 
                            "a_substr_spec": {
                                "aa_type": "Proteinogenic", 
                                "prot_adom_spec": "Phenylalanine", 
                                "epimerized": true
                            }, 
                            "cdom_subtype": "LCL", 
                            "nrps_mod_doms": "None", 
                            "nrps_mod_skip_iter": "Neither"
                        }, 
                        {
                            "module_nr": "6", 
                            "a_substr_spec": {
                                "aa_type": "Proteinogenic", 
                                "prot_adom_spec": "Lysine", 
                                "evidence_a_spec": "Structure-based inference"
                            }, 
                            "cdom_subtype": "Dual", 
                            "nrps_mod_doms": "None", 
                            "nrps_mod_skip_iter": "Neither"
                        }
                    ]
                }
            ], 
            "nrps_te_type": "Type I", 
            "nrps_thioesterase": [], 
            "nrps_release_type": "Macrolactamization"
        }
    }
}


// If this molecule is a hybrid, are all biosynthetic classes indicated/included?