{
    "version": "16", 
    "personal": {
        "submitter_name": "Neha Garg", 
        "submitter_institution": "University of California at San Diego", 
        "submitter_email": "negarg@ucsd.edu"
    }, 
    "general_params": {
        "mibig_accession": "BGC0000518", 
        "biosyn_class": [
            "RiPP"
        ], 
        "publications": "24802639", 
        "loci": {
            "complete": "complete", 
            "nucl_acc": [
                {
                    "Accession": "GG657757", 
                    "start_coord": 8170944, 
                    "end_coord": 8185829, 
                    "conn_comp_cluster": [
                        "Sequence-based prediction"
                    ]
                }
            ]
        }, 
        "compounds": [
            {
                "compound": "Informatipeptin", 
                "chem_synonyms": [], 
                "mol_mass": 1065.57, 
                "mass_ion_type": "[M+2H]2+", 
                "chem_act": [
                    "Unknown"
                ]
            }
        ], 
        "genes": {
            "gene": [
                {
                    "gene_name": "No gene ID", 
                    "not_in_gbk": false, 
                    "gene_startpos": 1, 
                    "gene_endpos": 216, 
                    "gene_id": "EFL36745.1", 
                    "gene_annotation": "conserved hypothetical protein", 
                    "gene_function": "", 
                    "evidence_genefunction": [
                        ""
                    ]
                }, 
                {
                    "gene_name": "No gene ID", 
                    "not_in_gbk": false, 
                    "gene_startpos": 961, 
                    "gene_endpos": 2373, 
                    "gene_id": "EFL36746.1", 
                    "gene_annotation": "protease", 
                    "gene_function": "", 
                    "evidence_genefunction": [
                        ""
                    ]
                }, 
                {
                    "gene_name": "No gene ID", 
                    "not_in_gbk": false, 
                    "gene_startpos": 2474, 
                    "gene_endpos": 4618, 
                    "gene_id": "EFL36747.1", 
                    "gene_annotation": "magnesium or manganese-dependent protein phosphatase", 
                    "gene_function": "", 
                    "evidence_genefunction": [
                        ""
                    ]
                }, 
                {
                    "gene_name": "No gene ID", 
                    "not_in_gbk": false, 
                    "gene_startpos": 4940, 
                    "gene_endpos": 5413, 
                    "gene_id": "EFL36748.1", 
                    "gene_annotation": "two-component system response regulator", 
                    "gene_function": "", 
                    "evidence_genefunction": [
                        ""
                    ]
                }, 
                {
                    "gene_name": "No gene ID", 
                    "not_in_gbk": false, 
                    "gene_startpos": 5711, 
                    "gene_endpos": 7808, 
                    "gene_id": "EFL36749.1", 
                    "gene_annotation": "ABC transporter ATP-binding protein", 
                    "gene_function": "", 
                    "evidence_genefunction": [
                        ""
                    ]
                }, 
                {
                    "gene_name": "No gene ID", 
                    "not_in_gbk": false, 
                    "gene_startpos": 9625, 
                    "gene_endpos": 12318, 
                    "gene_id": "EFL36750.1", 
                    "gene_annotation": "membrane translocator", 
                    "gene_function": "", 
                    "evidence_genefunction": [
                        ""
                    ]
                }, 
                {
                    "gene_name": "No gene ID", 
                    "not_in_gbk": false, 
                    "gene_startpos": 12358, 
                    "gene_endpos": 14886, 
                    "gene_id": "EFL36751.1", 
                    "gene_annotation": "regulatory protein", 
                    "gene_function": "", 
                    "evidence_genefunction": [
                        ""
                    ]
                }
            ]
        }, 
        "RiPP": {
            "ripp_subclass": "Lantipeptide", 
            "lin_cycl_ripp": "Cyclic", 
            "precursor_loci": [
                {
                    "gene_id": [], 
                    "core_pept_aa": "TDGGGASTVSLLSCISAASVLLCL ", 
                    "lead_pept_len": 38, 
                    "foll_pept_len": -1, 
                    "peptidase": []
                }
            ]
        }
    }
}


